Library\Bee\artifacts\movedfrom\Unity.PlasticSCM.Editor.ref.dll_14697804982844018402.movedfrom
Library\Bee\artifacts\movedfrom\Unity.Recorder.Base.ref.dll_1296823069644812261.movedfrom
Library\Bee\artifacts\movedfrom\Unity.Recorder.Editor.ref.dll_2219024165778265953.movedfrom
Library\Bee\artifacts\movedfrom\Unity.Recorder.ref.dll_9778932780992050512.movedfrom
Library\Bee\artifacts\movedfrom\Unity.Rider.Editor.ref.dll_11706774018472298211.movedfrom
Library\Bee\artifacts\movedfrom\Unity.Sysroot.Linux_x86_64.ref.dll_11253294001545161651.movedfrom
Library\Bee\artifacts\movedfrom\Unity.SysrootPackage.Editor.ref.dll_16294302010634720664.movedfrom
Library\Bee\artifacts\movedfrom\Unity.TextMeshPro.Editor.ref.dll_14247004639641441850.movedfrom
Library\Bee\artifacts\movedfrom\Unity.TextMeshPro.ref.dll_16889014065229257959.movedfrom
Library\Bee\artifacts\movedfrom\Unity.Timeline.Editor.ref.dll_1370744938779439902.movedfrom
Library\Bee\artifacts\movedfrom\Unity.Timeline.ref.dll_15173368180737704387.movedfrom
Library\Bee\artifacts\movedfrom\Unity.Toolchain.Win-x86_64-Linux-x86_64.ref.dll_10588473573087082100.movedfrom
Library\Bee\artifacts\movedfrom\Unity.VSCode.Editor.ref.dll_6388319242899333029.movedfrom
Library\Bee\artifacts\movedfrom\Unity.VisualScripting.Core.Editor.ref.dll_18342351409859142665.movedfrom
Library\Bee\artifacts\movedfrom\Unity.VisualScripting.Core.ref.dll_5675096879357492776.movedfrom
Library\Bee\artifacts\movedfrom\Unity.VisualScripting.Flow.Editor.ref.dll_8916573228339081034.movedfrom
Library\Bee\artifacts\movedfrom\Unity.VisualScripting.Flow.ref.dll_10795936317831213783.movedfrom
Library\Bee\artifacts\movedfrom\Unity.VisualScripting.State.Editor.ref.dll_13576910289478910627.movedfrom
Library\Bee\artifacts\movedfrom\Unity.VisualScripting.State.ref.dll_7600604229726240238.movedfrom
Library\Bee\artifacts\movedfrom\Unity.VisualStudio.Editor.ref.dll_17544914859700520121.movedfrom
Library\Bee\artifacts\movedfrom\UnityEditor.UI.ref.dll_13622993002070669097.movedfrom
Library\Bee\artifacts\movedfrom\UnityEngine.UI.ref.dll_8751741266572615572.movedfrom
Library\Bee\artifacts\movedfrom\UnityEditor.CoreModule.dll_6780693433163655871.movedfrom
Library\Bee\artifacts\movedfrom\UnityEditor.DeviceSimulatorModule.dll_5267508741140822066.movedfrom
Library\Bee\artifacts\movedfrom\UnityEditor.dll_12203590495087813286.movedfrom
Library\Bee\artifacts\movedfrom\UnityEditor.GraphViewModule.dll_9577064140812841431.movedfrom
Library\Bee\artifacts\movedfrom\UnityEditor.PackageManagerUIModule.dll_1541350058213625691.movedfrom
Library\Bee\artifacts\movedfrom\UnityEditor.QuickSearchModule.dll_9161273591127444057.movedfrom
Library\Bee\artifacts\movedfrom\UnityEditor.SceneTemplateModule.dll_6540316166931578362.movedfrom
Library\Bee\artifacts\movedfrom\UnityEditor.UIBuilderModule.dll_15668372974526819083.movedfrom
Library\Bee\artifacts\movedfrom\UnityEditor.UIElementsModule.dll_14828342362386892699.movedfrom
Library\Bee\artifacts\movedfrom\UnityEditor.UIElementsSamplesModule.dll_4454671741261950082.movedfrom
Library\Bee\artifacts\movedfrom\UnityEditor.UIServiceModule.dll_1324990227822394149.movedfrom
Library\Bee\artifacts\movedfrom\UnityEditor.UnityConnectModule.dll_7932551876141005045.movedfrom
Library\Bee\artifacts\movedfrom\UnityEngine.AccessibilityModule.dll_10189757536277210519.movedfrom
Library\Bee\artifacts\movedfrom\UnityEngine.AIModule.dll_7174709946337105715.movedfrom
Library\Bee\artifacts\movedfrom\UnityEngine.AndroidJNIModule.dll_5481377329941968497.movedfrom
Library\Bee\artifacts\movedfrom\UnityEngine.AnimationModule.dll_6011757125723014781.movedfrom
Library\Bee\artifacts\movedfrom\UnityEngine.ARModule.dll_2090925535227016700.movedfrom
Library\Bee\artifacts\movedfrom\UnityEngine.AssetBundleModule.dll_14054772073561603915.movedfrom
Library\Bee\artifacts\movedfrom\UnityEngine.AudioModule.dll_1265462239855427631.movedfrom
Library\Bee\artifacts\movedfrom\UnityEngine.ClothModule.dll_8680741258791853843.movedfrom
Library\Bee\artifacts\movedfrom\UnityEngine.ClusterInputModule.dll_17127905151357946811.movedfrom
Library\Bee\artifacts\movedfrom\UnityEngine.ClusterRendererModule.dll_5676424199786317238.movedfrom
Library\Bee\artifacts\movedfrom\UnityEngine.CoreModule.dll_9311948775705581034.movedfrom
Library\Bee\artifacts\movedfrom\UnityEngine.CrashReportingModule.dll_8998427320532008898.movedfrom
Library\Bee\artifacts\movedfrom\UnityEngine.DirectorModule.dll_1406034971388284551.movedfrom
Library\Bee\artifacts\movedfrom\UnityEngine.dll_15852709988276268939.movedfrom
Library\Bee\artifacts\movedfrom\UnityEngine.DSPGraphModule.dll_1789229520209895336.movedfrom
Library\Bee\artifacts\movedfrom\UnityEngine.GameCenterModule.dll_8529551331597412194.movedfrom
Library\Bee\artifacts\movedfrom\UnityEngine.GIModule.dll_18144433061500125005.movedfrom
Library\Bee\artifacts\movedfrom\UnityEngine.GridModule.dll_6821770366170770401.movedfrom
Library\Bee\artifacts\movedfrom\UnityEngine.HotReloadModule.dll_15327661887300559359.movedfrom
Library\Bee\artifacts\movedfrom\UnityEngine.ImageConversionModule.dll_13454701165771390378.movedfrom
Library\Bee\artifacts\movedfrom\UnityEngine.IMGUIModule.dll_5327602892527522832.movedfrom
Library\Bee\artifacts\movedfrom\UnityEngine.InputLegacyModule.dll_6075830726956807484.movedfrom
Library\Bee\artifacts\movedfrom\UnityEngine.InputModule.dll_8648488964710786259.movedfrom
Library\Bee\artifacts\movedfrom\UnityEngine.JSONSerializeModule.dll_17113911379160794657.movedfrom
Library\Bee\artifacts\movedfrom\UnityEngine.LocalizationModule.dll_3170346462307548852.movedfrom
Library\Bee\artifacts\movedfrom\UnityEngine.ParticleSystemModule.dll_14984354767873805136.movedfrom
Library\Bee\artifacts\movedfrom\UnityEngine.PerformanceReportingModule.dll_8104907227904906409.movedfrom
Library\Bee\artifacts\movedfrom\UnityEngine.Physics2DModule.dll_11534841460534918674.movedfrom
Library\Bee\artifacts\movedfrom\UnityEngine.PhysicsModule.dll_5086235935963469536.movedfrom
Library\Bee\artifacts\movedfrom\UnityEngine.ProfilerModule.dll_5028680828318225812.movedfrom
Library\Bee\artifacts\movedfrom\UnityEngine.RuntimeInitializeOnLoadManagerInitializerModule.dll_14454795319797764827.movedfrom
Library\Bee\artifacts\movedfrom\UnityEngine.ScreenCaptureModule.dll_533818663104492163.movedfrom
Library\Bee\artifacts\movedfrom\UnityEngine.SharedInternalsModule.dll_4524413666220865786.movedfrom
Library\Bee\artifacts\movedfrom\UnityEngine.SpriteMaskModule.dll_6884737531062156508.movedfrom
Library\Bee\artifacts\movedfrom\UnityEngine.SpriteShapeModule.dll_15883564864868349781.movedfrom
Library\Bee\artifacts\movedfrom\UnityEngine.StreamingModule.dll_577299204581129659.movedfrom
Library\Bee\artifacts\movedfrom\UnityEngine.SubstanceModule.dll_16478124418971696073.movedfrom
Library\Bee\artifacts\movedfrom\UnityEngine.SubsystemsModule.dll_14571650240312141039.movedfrom
Library\Bee\artifacts\movedfrom\UnityEngine.TerrainModule.dll_6979572345281978318.movedfrom
Library\Bee\artifacts\movedfrom\UnityEngine.TerrainPhysicsModule.dll_15018880339647890909.movedfrom
Library\Bee\artifacts\movedfrom\UnityEngine.TextCoreModule.dll_12411376614966722199.movedfrom
Library\Bee\artifacts\movedfrom\UnityEngine.TextRenderingModule.dll_3506038332541416056.movedfrom
Library\Bee\artifacts\movedfrom\UnityEngine.TilemapModule.dll_18435717701552373975.movedfrom
Library\Bee\artifacts\movedfrom\UnityEngine.TLSModule.dll_10648443281518063540.movedfrom
Library\Bee\artifacts\movedfrom\UnityEngine.UIElementsModule.dll_14877439164377637094.movedfrom
Library\Bee\artifacts\movedfrom\UnityEngine.UIElementsNativeModule.dll_6907869043149127549.movedfrom
Library\Bee\artifacts\movedfrom\UnityEngine.UIModule.dll_6846965516128066783.movedfrom
Library\Bee\artifacts\movedfrom\UnityEngine.UmbraModule.dll_10116350628992609186.movedfrom
Library\Bee\artifacts\movedfrom\UnityEngine.UNETModule.dll_1432417345013255011.movedfrom
Library\Bee\artifacts\movedfrom\UnityEngine.UnityAnalyticsModule.dll_17263018715825560908.movedfrom
Library\Bee\artifacts\movedfrom\UnityEngine.UnityConnectModule.dll_6590342912075512224.movedfrom
Library\Bee\artifacts\movedfrom\UnityEngine.UnityCurlModule.dll_9694752954711062634.movedfrom
Library\Bee\artifacts\movedfrom\UnityEngine.UnityTestProtocolModule.dll_17984248024332698072.movedfrom
Library\Bee\artifacts\movedfrom\UnityEngine.UnityWebRequestAssetBundleModule.dll_8698420061394245917.movedfrom
Library\Bee\artifacts\movedfrom\UnityEngine.UnityWebRequestAudioModule.dll_16750784827752406849.movedfrom
Library\Bee\artifacts\movedfrom\UnityEngine.UnityWebRequestModule.dll_14724443212622796841.movedfrom
Library\Bee\artifacts\movedfrom\UnityEngine.UnityWebRequestTextureModule.dll_5010770300386400054.movedfrom
Library\Bee\artifacts\movedfrom\UnityEngine.UnityWebRequestWWWModule.dll_5418402165344890290.movedfrom
Library\Bee\artifacts\movedfrom\UnityEngine.VehiclesModule.dll_10035769133289299490.movedfrom
Library\Bee\artifacts\movedfrom\UnityEngine.VFXModule.dll_1487726291304372513.movedfrom
Library\Bee\artifacts\movedfrom\UnityEngine.VideoModule.dll_3934272088114912212.movedfrom
Library\Bee\artifacts\movedfrom\UnityEngine.VirtualTexturingModule.dll_9541547313428742152.movedfrom
Library\Bee\artifacts\movedfrom\UnityEngine.VRModule.dll_12814840327733256791.movedfrom
Library\Bee\artifacts\movedfrom\UnityEngine.WindModule.dll_17836940887645951059.movedfrom
Library\Bee\artifacts\movedfrom\UnityEngine.XRModule.dll_16471414699454263221.movedfrom
Library\Bee\artifacts\movedfrom\UnityEditor.iOS.Extensions.Common.dll_4850589304103872804.movedfrom
Library\Bee\artifacts\movedfrom\UnityEditor.iOS.Extensions.Xcode.dll_11439913773497623144.movedfrom
Library\Bee\artifacts\movedfrom\Unity.VisualScripting.Antlr3.Runtime.dll_7010196863865690036.movedfrom